[0] Config.pm:343> INFO - This is Biber 2.5
[0] Config.pm:346> INFO - Logfile is 'seminar.blg'
[32] biber-MSWIN64:290> INFO - === 
[290] Utils.pm:165> ERROR - Cannot find control file 'seminar.bcf'! - did you pass the "backend=biber" option to BibLaTeX?
[291] Biber.pm:112> INFO - ERRORS: 1
